{
    "dev": {
        "awscloudformation": {
            "AuthRoleName": "amplify-chatroomnuxtjobsity-dev-23147-authRole",
            "UnauthRoleArn": "arn:aws:iam::714428961986:role/amplify-chatroomnuxtjobsity-dev-23147-unauthRole",
            "AuthRoleArn": "arn:aws:iam::714428961986:role/amplify-chatroomnuxtjobsity-dev-23147-authRole",
            "Region": "us-east-1",
            "DeploymentBucketName": "amplify-chatroomnuxtjobsity-dev-23147-deployment",
            "UnauthRoleName": "amplify-chatroomnuxtjobsity-dev-23147-unauthRole",
            "StackName": "amplify-chatroomnuxtjobsity-dev-23147",
            "StackId": "arn:aws:cloudformation:us-east-1:714428961986:stack/amplify-chatroomnuxtjobsity-dev-23147/9f516040-26e8-11ea-bf80-0a59ae10838a",
            "AmplifyAppId": "d37t7ti9ol1sfs"
        }
    }
}